{
  "type": "Page",
  "style": {
    "borderColor": {
      "bottom": "none"
    },
    "padding": {},
    "margin": {},
    "borderRadius": {},
    "borderStyleColorWidth": {},
    "borderStyle": {},
    "borderWidth": {},
    "flexDirection": "wb-flex-column",
    "alignItems": "wb-flex-align-items-stretch",
    "justifyContent": "wb-flex-justify-content-center"
  },
  "contents": [
    {
      "style": {
        "padding": {},
        "margin": {},
        "borderRadius": {},
        "borderStyleColorWidth": {},
        "borderStyle": {},
        "borderWidth": {},
        "borderColor": {
          "bottom": "none"
        },
        "flexDirection": "wb-flex-row",
        "alignItems": "wb-flex-align-items-stretch",
        "justifyContent": "wb-flex-justify-content-start",
        "flexAlignItem": "wb-flex-item-auto"
      },
      "type": "Group",
      "name": "Panel",
      "contents": [
        {
          "text": "<h1><strong>Pie chart</strong>&nbsp;</h1>\n<p>A&nbsp;<strong>pie chart</strong>&nbsp;(or a&nbsp;<strong>circle chart</strong>) is a circular&nbsp;<a title=\"Statistical graphics\" href=\"https://en.wikipedia.org/wiki/Statistical_graphics\">statistical graphic</a>&nbsp;which is divided into slices to illustrate numerical proportion. In a pie chart, the&nbsp;<a title=\"Arc length\" href=\"https://en.wikipedia.org/wiki/Arc_length\">arc length</a>&nbsp;of each slice (and consequently its&nbsp;<a title=\"Central angle\" href=\"https://en.wikipedia.org/wiki/Central_angle\">central angle</a>&nbsp;and&nbsp;<a title=\"Area\" href=\"https://en.wikipedia.org/wiki/Area\">area</a>), is&nbsp;<a title=\"Proportionality (mathematics)\" href=\"https://en.wikipedia.org/wiki/Proportionality_(mathematics)\">proportional</a>&nbsp;to the quantity it represents. While it is named for its resemblance to a&nbsp;<a title=\"Pie\" href=\"https://en.wikipedia.org/wiki/Pie\">pie</a>&nbsp;which has been sliced, there are variations on the way it can be presented. The earliest known pie chart is generally credited to&nbsp;<a title=\"William Playfair\" href=\"https://en.wikipedia.org/wiki/William_Playfair\">William Playfair</a>'s&nbsp;<em>Statistical Breviary</em>&nbsp;of 1801.<sup id=\"cite_ref-Spence2005_1-0\" class=\"reference\"><a href=\"https://en.wikipedia.org/wiki/Pie_chart#cite_note-Spence2005-1\">[1]</a></sup><sup id=\"cite_ref-Tufte.2C_p._44_2-0\" class=\"reference\"><a href=\"https://en.wikipedia.org/wiki/Pie_chart#cite_note-Tufte.2C_p._44-2\">[2]</a></sup></p>\n<p>Pie charts are very widely used in the business world and the mass media.<sup id=\"cite_ref-Cleveland_3-0\" class=\"reference\"><a href=\"https://en.wikipedia.org/wiki/Pie_chart#cite_note-Cleveland-3\">[3]</a></sup>&nbsp;However, they have been criticized,<sup id=\"cite_ref-Wilkinson_4-0\" class=\"reference\"><a href=\"https://en.wikipedia.org/wiki/Pie_chart#cite_note-Wilkinson-4\">[4]</a></sup>&nbsp;and many experts recommend avoiding them,<sup id=\"cite_ref-tufte_5-0\" class=\"reference\"><a href=\"https://en.wikipedia.org/wiki/Pie_chart#cite_note-tufte-5\">[5]</a></sup><sup id=\"cite_ref-vanbelle_6-0\" class=\"reference\"><a href=\"https://en.wikipedia.org/wiki/Pie_chart#cite_note-vanbelle-6\">[6]</a></sup><sup id=\"cite_ref-sfew_7-0\" class=\"reference\"><a href=\"https://en.wikipedia.org/wiki/Pie_chart#cite_note-sfew-7\">[7]</a></sup><sup id=\"cite_ref-fenton_8-0\" class=\"reference\"><a href=\"https://en.wikipedia.org/wiki/Pie_chart#cite_note-fenton-8\">[8]</a></sup>&nbsp;pointing out that research has shown it is difficult to compare different sections of a given pie chart, or to compare data across different pie charts. Pie charts can be replaced in most cases by other plots such as the&nbsp;<a title=\"Bar chart\" href=\"https://en.wikipedia.org/wiki/Bar_chart\">bar chart</a>,&nbsp;<a title=\"Box plot\" href=\"https://en.wikipedia.org/wiki/Box_plot\">box plot</a>&nbsp;or dot plots.</p>",
          "type": "HtmlText",
          "name": "Widget",
          "style": {
            "borderColor": {
              "bottom": "none"
            },
            "padding": {},
            "margin": {},
            "borderRadius": {},
            "borderStyleColorWidth": {},
            "borderStyle": {},
            "borderWidth": {},
            "flexAlignItem": "wb-flex-item-auto"
          }
        },
        {
          "type": "ChartPie",
          "name": "Pie chart widget",
          "style": {
            "padding": {},
            "margin": {},
            "borderRadius": {},
            "borderStyleColorWidth": {},
            "borderStyle": {},
            "borderWidth": {},
            "borderColor": {
              "bottom": "none"
            },
            "flexAlignItem": "wb-flex-item-auto",
            "minWidth": 400
          },
          "options": {
            "chart": {
              "type": "pieChart",
              "height": 450,
              "margin": {
                "top": 50,
                "right": 75,
                "bottom": 50,
                "left": 75
              },
              "showLabels": true,
              "labelSunbeamLayout": true,
              "pie": {}
            }
          },
          "query": {
            "url": "http://192.69.216.109:8083/api/monitor/query",
            "query": "100 * (1 - avg by(cpu)(irate(node_cpu{mode='idle'}[5m])))",
            "start_dtime": "2017-12-02 08:44:32",
            "end_dtime": "2017-12-02 08:55:43",
            "step": 6000
          }
        }
      ]
    }
  ]
}